index.knit
…
weekly.hist<-readRDS('./rdm_model_output/weeklyCaptHist.rmd')

sites<-weekly.hist %>% 
  group_by(yr_cell_site) %>% 
  summarize(yr_cell_site = yr_cell_site[1]) %>% 
  pull(yr_cell_site)

site.dat<-as_tibble(sp.dat$siteLocations) %>% 
  mutate(yr_cell_site = sites) %>% 
  select(yr_cell_site, utme, utmn)

site.dat

## # A tibble: 127 x 3
##    yr_cell_site    utme     utmn
##    <chr>          <dbl>    <dbl>
##  1 2016_19942_1 354192. 4121653.
##  2 2016_19942_2 355567. 4121419.
##  3 2016_20002_1 351213. 4122617.
##  4 2016_20002_2 352525. 4122194.
##  5 2016_20063_1 349733. 4122430.
##  6 2016_20549_1 346228. 4137764.
##  7 2016_20549_2 345790. 4139171.
##  8 2016_20609_1 343914. 4138967.
##  9 2016_20609_2 344557. 4137400.
## 10 2016_20670_1 344037. 4140794.
## # ... with 117 more rows
…
